…
Fix ride length

``` r
dim(all_trips_v2) # 5378834 rows
```

    ## [1] 5378834      16

``` r
distinct(all_trips_v2) # no duplicates
```

    ## # A tibble: 5,378,834 × 16
    ##    ride_id          rideable_type started_at          ended_at           
    ##    <chr>            <chr>         <dttm>              <dttm>             
    ##  1 BD0A6FF6FFF9B921 electric_bike 2020-11-01 13:36:00 2020-11-01 13:45:40
    ##  2 96A7A7A4BDE4F82D electric_bike 2020-11-01 10:03:26 2020-11-01 10:14:45
    ##  3 C61526D06582BDC5 electric_bike 2020-11-01 00:34:05 2020-11-01 01:03:06
    ##  4 E533E89C32080B9E electric_bike 2020-11-01 00:45:16 2020-11-01 00:54:31
    ##  5 1C9F4EF18C168C60 electric_bike 2020-11-01 15:43:25 2020-11-01 16:16:52
    ##  6 7259585D8276D338 electric_bike 2020-11-14 15:55:17 2020-11-14 16:44:38
    ##  7 91FE5C8F8A676594 electric_bike 2020-11-14 16:47:29 2020-11-14 17:03:03
    ##  8 9E7A79ADA90C2695 electric_bike 2020-11-14 16:04:15 2020-11-14 16:19:33
    ##  9 A5B02C0D41DBCDAF electric_bike 2020-11-14 16:24:09 2020-11-14 16:51:34
    ## 10 8234407C29FE41DC electric_bike 2020-11-14 01:24:22 2020-11-14 01:31:42
    ## # … with 5,378,824 more rows, and 12 more variables: start_station_name <chr>,
    ## #   start_station_id <chr>, end_station_name <chr>, end_station_id <chr>,
    ## #   member_casual <chr>, date <date>, month <chr>, day <chr>, year <chr>,
    ## #   day_of_week <ord>, hour <chr>, ride_length <dbl>
…
    ## [1] 0.1624551

### Renaming

Column renaming for easy life

``` r
(all_trips_v4 <- rename(all_trips_v4,
                  user_type = member_casual))
```

    ## # A tibble: 4,432,377 × 16
    ##    ride_id          rideable_type started_at          ended_at           
    ##    <chr>            <chr>         <dttm>              <dttm>             
    ##  1 BD0A6FF6FFF9B921 electric_bike 2020-11-01 13:36:00 2020-11-01 13:45:40
    ##  2 96A7A7A4BDE4F82D electric_bike 2020-11-01 10:03:26 2020-11-01 10:14:45
    ##  3 C61526D06582BDC5 electric_bike 2020-11-01 00:34:05 2020-11-01 01:03:06
    ##  4 E533E89C32080B9E electric_bike 2020-11-01 00:45:16 2020-11-01 00:54:31
    ##  5 1C9F4EF18C168C60 electric_bike 2020-11-01 15:43:25 2020-11-01 16:16:52
    ##  6 7259585D8276D338 electric_bike 2020-11-14 15:55:17 2020-11-14 16:44:38
    ##  7 91FE5C8F8A676594 electric_bike 2020-11-14 16:47:29 2020-11-14 17:03:03
    ##  8 A5B02C0D41DBCDAF electric_bike 2020-11-14 16:24:09 2020-11-14 16:51:34
    ##  9 8234407C29FE41DC electric_bike 2020-11-14 01:24:22 2020-11-14 01:31:42
    ## 10 3D2F9317211E3350 electric_bike 2020-11-14 12:05:08 2020-11-14 12:09:38
    ## # … with 4,432,367 more rows, and 12 more variables: start_station_name <chr>,
    ## #   start_station_id <chr>, end_station_name <chr>, end_station_id <chr>,
    ## #   user_type <chr>, date <date>, month <chr>, day <chr>, year <chr>,
    ## #   day_of_week <ord>, hour <chr>, ride_length <dbl>
…
